{
	"info": {
		"_postman_id": "0233e932-6d10-45bb-aa64-2674761d4afc",
		"name": "s35",
		"schema": "https://schema.getpostman.com/json/collection/v2.1.0/collection.json",
		"_exporter_id": "28110108"
	},
	"item": [
		{
			"name": "create to-do task",
			"request": {
				"method": "POST",
				"header": [],
				"body": {
					"mode": "raw",
					"raw": "{\r\n    \"name\" : \"Eat breakfast.\"\r\n}",
					"options": {
						"raw": {
							"language": "json"
						}
					}
				},
				"url": {
					"raw": "http://localhost:3001/tasks",
					"protocol": "http",
					"host": [
						"localhost"
					],
					"port": "3001",
					"path": [
						"tasks"
					]
				}
			},
			"response": []
		},
		{
			"name": "retrieve all task",
			"request": {
				"method": "GET",
				"header": [],
				"url": {
					"raw": "http://localhost:3001/tasks",
					"protocol": "http",
					"host": [
						"localhost"
					],
					"port": "3001",
					"path": [
						"tasks"
					]
				}
			},
			"response": []
		},
		{
			"name": "post signup",
			"request": {
				"method": "POST",
				"header": [],
				"body": {
					"mode": "raw",
					"raw": "{\r\n    \"username\" : \"ira143\",\r\n    \"password\" : \"pass123\"\r\n}",
					"options": {
						"raw": {
							"language": "json"
						}
					}
				},
				"url": {
					"raw": "http://localhost:3001/signup",
					"protocol": "http",
					"host": [
						"localhost"
					],
					"port": "3001",
					"path": [
						"signup"
					]
				}
			},
			"response": []
		}
	]
}